digraph "meshviewerwidget.h"
{
  edge [fontname="Helvetica",fontsize="10",labelfontname="Helvetica",labelfontsize="10"];
  node [fontname="Helvetica",fontsize="10",shape=record];
  Node10 [label="meshviewerwidget.h",height=0.2,width=0.4,color="black", fillcolor="grey75", style="filled", fontcolor="black"];
  Node10 -> Node11 [dir="back",color="midnightblue",fontsize="10",style="solid",fontname="Helvetica"];
  Node11 [label="meshviewerwidget.cpp",height=0.2,width=0.4,color="black", fillcolor="white", style="filled",URL="$meshviewerwidget_8cpp.html"];
}
