digraph "plains.h"
{
  edge [fontname="Helvetica",fontsize="10",labelfontname="Helvetica",labelfontsize="10"];
  node [fontname="Helvetica",fontsize="10",shape=record];
  Node6 [label="plains.h",height=0.2,width=0.4,color="black", fillcolor="grey75", style="filled", fontcolor="black"];
  Node6 -> Node7 [dir="back",color="midnightblue",fontsize="10",style="solid",fontname="Helvetica"];
  Node7 [label="diamondsquare.h",height=0.2,width=0.4,color="black", fillcolor="white", style="filled",URL="$diamondsquare_8h.html"];
  Node7 -> Node8 [dir="back",color="midnightblue",fontsize="10",style="solid",fontname="Helvetica"];
  Node8 [label="diamondsquare.cpp",height=0.2,width=0.4,color="black", fillcolor="white", style="filled",URL="$diamondsquare_8cpp.html"];
  Node7 -> Node9 [dir="back",color="midnightblue",fontsize="10",style="solid",fontname="Helvetica"];
  Node9 [label="mainwindow.h",height=0.2,width=0.4,color="black", fillcolor="white", style="filled",URL="$mainwindow_8h.html"];
  Node9 -> Node10 [dir="back",color="midnightblue",fontsize="10",style="solid",fontname="Helvetica"];
  Node10 [label="main.cpp",height=0.2,width=0.4,color="black", fillcolor="white", style="filled",URL="$main_8cpp.html"];
  Node9 -> Node11 [dir="back",color="midnightblue",fontsize="10",style="solid",fontname="Helvetica"];
  Node11 [label="mainwindow.cpp",height=0.2,width=0.4,color="black", fillcolor="white", style="filled",URL="$mainwindow_8cpp.html"];
  Node6 -> Node12 [dir="back",color="midnightblue",fontsize="10",style="solid",fontname="Helvetica"];
  Node12 [label="plains.cpp",height=0.2,width=0.4,color="black", fillcolor="white", style="filled",URL="$plains_8cpp.html"];
}
