digraph "diamondsquare.h"
{
  edge [fontname="Helvetica",fontsize="10",labelfontname="Helvetica",labelfontsize="10"];
  node [fontname="Helvetica",fontsize="10",shape=record];
  Node0 [label="diamondsquare.h",height=0.2,width=0.4,color="black", fillcolor="grey75", style="filled", fontcolor="black"];
  Node0 -> Node1 [color="midnightblue",fontsize="10",style="solid"];
  Node1 [label="vector",height=0.2,width=0.4,color="grey75", fillcolor="white", style="filled"];
  Node0 -> Node2 [color="midnightblue",fontsize="10",style="solid"];
  Node2 [label="random",height=0.2,width=0.4,color="grey75", fillcolor="white", style="filled"];
  Node0 -> Node3 [color="midnightblue",fontsize="10",style="solid"];
  Node3 [label="chrono",height=0.2,width=0.4,color="grey75", fillcolor="white", style="filled"];
  Node0 -> Node4 [color="midnightblue",fontsize="10",style="solid"];
  Node4 [label="memory",height=0.2,width=0.4,color="grey75", fillcolor="white", style="filled"];
  Node0 -> Node5 [color="midnightblue",fontsize="10",style="solid"];
  Node5 [label="cmath",height=0.2,width=0.4,color="grey75", fillcolor="white", style="filled"];
  Node0 -> Node6 [color="midnightblue",fontsize="10",style="solid"];
  Node6 [label="biome.h",height=0.2,width=0.4,color="black", fillcolor="white", style="filled",URL="$biome_8h.html"];
  Node6 -> Node1 [color="midnightblue",fontsize="10",style="solid"];
  Node6 -> Node2 [color="midnightblue",fontsize="10",style="solid"];
  Node6 -> Node7 [color="midnightblue",fontsize="10",style="solid"];
  Node7 [label="QDebug",height=0.2,width=0.4,color="grey75", fillcolor="white", style="filled"];
  Node0 -> Node8 [color="midnightblue",fontsize="10",style="solid"];
  Node8 [label="mountain.h",height=0.2,width=0.4,color="black", fillcolor="white", style="filled",URL="$mountain_8h.html"];
  Node8 -> Node6 [color="midnightblue",fontsize="10",style="solid"];
  Node8 -> Node1 [color="midnightblue",fontsize="10",style="solid"];
  Node8 -> Node2 [color="midnightblue",fontsize="10",style="solid"];
  Node8 -> Node9 [color="midnightblue",fontsize="10",style="solid"];
  Node9 [label="iostream",height=0.2,width=0.4,color="grey75", fillcolor="white", style="filled"];
  Node0 -> Node10 [color="midnightblue",fontsize="10",style="solid"];
  Node10 [label="water.h",height=0.2,width=0.4,color="black", fillcolor="white", style="filled",URL="$water_8h.html"];
  Node10 -> Node6 [color="midnightblue",fontsize="10",style="solid"];
  Node10 -> Node1 [color="midnightblue",fontsize="10",style="solid"];
  Node10 -> Node9 [color="midnightblue",fontsize="10",style="solid"];
  Node0 -> Node11 [color="midnightblue",fontsize="10",style="solid"];
  Node11 [label="plains.h",height=0.2,width=0.4,color="black", fillcolor="white", style="filled",URL="$plains_8h.html"];
  Node11 -> Node6 [color="midnightblue",fontsize="10",style="solid"];
  Node11 -> Node1 [color="midnightblue",fontsize="10",style="solid"];
  Node11 -> Node2 [color="midnightblue",fontsize="10",style="solid"];
  Node11 -> Node9 [color="midnightblue",fontsize="10",style="solid"];
}
