digraph "perlin.h"
{
  edge [fontname="Helvetica",fontsize="10",labelfontname="Helvetica",labelfontsize="10"];
  node [fontname="Helvetica",fontsize="10",shape=record];
  Node5 [label="perlin.h",height=0.2,width=0.4,color="black", fillcolor="grey75", style="filled", fontcolor="black"];
  Node5 -> Node6 [dir="back",color="midnightblue",fontsize="10",style="solid"];
  Node6 [label="mainwindow.h",height=0.2,width=0.4,color="black", fillcolor="white", style="filled",URL="$mainwindow_8h.html"];
  Node6 -> Node7 [dir="back",color="midnightblue",fontsize="10",style="solid"];
  Node7 [label="main.cpp",height=0.2,width=0.4,color="black", fillcolor="white", style="filled",URL="$main_8cpp.html"];
  Node6 -> Node8 [dir="back",color="midnightblue",fontsize="10",style="solid"];
  Node8 [label="mainwindow.cpp",height=0.2,width=0.4,color="black", fillcolor="white", style="filled",URL="$mainwindow_8cpp.html"];
  Node5 -> Node9 [dir="back",color="midnightblue",fontsize="10",style="solid"];
  Node9 [label="perlin.cpp",height=0.2,width=0.4,color="black", fillcolor="white", style="filled",URL="$perlin_8cpp.html"];
}
